{"count":1118,"next":"https://pokeapi.co/api/v2/pokemon?offset=55&limit=5","previous":"https://pokeapi.co/api/v2/pokemon?offset=45&limit=5","results":[{"name":"dugtrio","url":"https://pokeapi.co/api/v2/pokemon/51/"},{"name":"meowth","url":"https://pokeapi.co/api/v2/pokemon/52/"},{"name":"persian","url":"https://pokeapi.co/api/v2/pokemon/53/"},{"name":"psyduck","url":"https://pokeapi.co/api/v2/pokemon/54/"},{"name":"golduck","url":"https://pokeapi.co/api/v2/pokemon/55/"}]}